{
  "info_users": [
    {
      "user_name": "admin1",
      "user_last_name": "Admin",
      "user_full_name": "admin Admin",
      "user_alias": "ADMIN1",
      "user_mail": "admin1@companyec.com",
      "user_password": "dd1ee7a3d82aa52a768b0043345b59e000a73166886863b2faebe185a4c9b371",
      "role": "ADM",
      "code_password": "e7cdbc0ba576d8323409fd6719fcc389"
    },
    {
      "user_name": "Jeremy",
      "user_last_name": "Ramirez",
      "user_full_name": "Jeremy Ramirez",
      "user_alias": "JRAMIREZ",
      "user_mail": "jramirez@companyec.com",
      "user_password": "bb4e07fc05b954182201aa6327b49b3ff0868a8e266027cd9a0315dd9d03e054",
      "role": "USER",
      "code_password": "72f5606644b97f5c7ed6e694481e2b6e"
    },
    {
      "user_name": "David S",
      "user_last_name": "Chancay",
      "user_full_name": "David S Chancay",
      "user_alias": "DHERNANDEZ",
      "user_mail": "dhernandez@companyec.com",
      "user_password": "43f569d9e9a87064bf91705b973869b1d35d876bfe4e254d119868aa2de785df",
      "role": "ADM",
      "code_password": "1f1cc739be1038eda76d28b9569d3e2d"
    }
  ]
}